…
Observations are the level of items in order by user. There are
user/order variables – user ID, order ID, order day, and order hour.
There are also item variables – name, aisle, department, and some
numeric codes.

How many aisles, and which are most items from?

``` r
instacart %>% 
  count(aisle) %>% 
  arrange(desc(n))
```

    ## # A tibble: 134 x 2
    ##    aisle                              n
    ##    <chr>                          <int>
    ##  1 fresh vegetables              150609
    ##  2 fresh fruits                  150473
    ##  3 packaged vegetables fruits     78493
    ##  4 yogurt                         55240
    ##  5 packaged cheese                41699
    ##  6 water seltzer sparkling water  36617
    ##  7 milk                           32644
    ##  8 chips pretzels                 31269
    ##  9 soy lactosefree                26240
    ## 10 bread                          23635
    ## # … with 124 more rows
…
accel_tidy
```

    ## # A tibble: 50,400 x 6
    ##     week day_id day    day_category minute      activity_count
    ##    <dbl>  <dbl> <fct>  <fct>        <chr>                <dbl>
    ##  1     1      1 Friday weekday      activity_1            88.4
    ##  2     1      1 Friday weekday      activity_2            82.2
    ##  3     1      1 Friday weekday      activity_3            64.4
    ##  4     1      1 Friday weekday      activity_4            70.0
    ##  5     1      1 Friday weekday      activity_5            75.0
    ##  6     1      1 Friday weekday      activity_6            66.3
    ##  7     1      1 Friday weekday      activity_7            53.8
    ##  8     1      1 Friday weekday      activity_8            47.8
    ##  9     1      1 Friday weekday      activity_9            55.5
    ## 10     1      1 Friday weekday      activity_10           43.0
    ## # … with 50,390 more rows
…
ny_noaa %>% 
  group_by(snowcm) %>% 
  count() %>% 
  arrange(desc(n))
```

    ## # A tibble: 282 x 2
    ## # Groups:   snowcm [282]
    ##    snowcm       n
    ##     <dbl>   <int>
    ##  1    0   2008508
    ##  2   NA    381221
    ##  3    2.5   31022
    ##  4    1.3   23095
    ##  5    5.1   18274
    ##  6    7.6   10173
    ##  7    0.8    9962
    ##  8    0.5    9748
    ##  9    3.8    9197
    ## 10    0.3    8790
    ## # … with 272 more rows
…
